{
    "help": "http://dados.recife.pe.gov.br/api/3/action/help_show?name=datastore_search",
    "success": true,
    "result": {
        "include_total": true,
        "resource_id": "d4d8a7f0-d4be-4397-b950-f0c991438111",
        "fields": [
            {
                "type": "int",
                "id": "_id"
            },
            {
                "type": "numeric",
                "id": "ano_movimentacao"
            },
            {
                "type": "numeric",
                "id": "mes_movimentacao"
            },
            {
                "type": "numeric",
                "id": "orgao_codigo"
            },
            {
                "type": "text",
                "id": "orgao_nome"
            },
            {
                "type": "numeric",
                "id": "unidade_codigo"
            },
            {
                "type": "text",
                "id": "unidade_nome"
            },
            {
                "type": "numeric",
                "id": "categoria_economica_codigo"
            },
            {
                "type": "text",
                "id": "categoria_economica_nome"
            },
            {
                "type": "numeric",
                "id": "grupo_despesa_codigo"
            },
            {
                "type": "text",
                "id": "grupo_despesa_nome"
            },
            {
                "type": "numeric",
                "id": "modalidade_aplicacao_codigo"
            },
            {
                "type": "text",
                "id": "modalidade_aplicacao_nome"
            },
            {
                "type": "numeric",
                "id": "elemento_codigo"
            },
            {
                "type": "text",
                "id": "elemento_nome"
            },
            {
                "type": "numeric",
                "id": "subelemento_codigo"
            },
            {
                "type": "text",
                "id": "subelemento_nome"
            },
            {
                "type": "numeric",
                "id": "funcao_codigo"
            },
            {
                "type": "text",
                "id": "funcao_nome"
            },
            {
                "type": "numeric",
                "id": "subfuncao_codigo"
            },
            {
                "type": "text",
                "id": "subfuncao_nome"
            },
            {
                "type": "numeric",
                "id": "programa_codigo"
            },
            {
                "type": "text",
                "id": "programa_nome"
            },
            {
                "type": "numeric",
                "id": "acao_codigo"
            },
            {
                "type": "text",
                "id": "acao_nome"
            },
            {
                "type": "numeric",
                "id": "fonte_recurso_codigo"
            },
            {
                "type": "text",
                "id": "fonte_recurso_nome"
            },
            {
                "type": "numeric",
                "id": "empenho_ano"
            },
            {
                "type": "text",
                "id": "empenho_modalidade_nome"
            },
            {
                "type": "numeric",
                "id": "empenho_modalidade_codigo"
            },
            {
                "type": "numeric",
                "id": "empenho_numero"
            },
            {
                "type": "numeric",
                "id": "subempenho"
            },
            {
                "type": "text",
                "id": "indicador_subempenho"
            },
            {
                "type": "numeric",
                "id": "credor_codigo"
            },
            {
                "type": "text",
                "id": "credor_nome"
            },
            {
                "type": "numeric",
                "id": "modalidade_licitacao_codigo"
            },
            {
                "type": "text",
                "id": "modalidade_licitacao_nome"
            },
            {
                "type": "text",
                "id": "valor_empenhado"
            },
            {
                "type": "text",
                "id": "valor_liquidado"
            },
            {
                "type": "text",
                "id": "valor_pago"
            }
        ],
        "records_format": "objects",
        "records": [
            {
                "_id": 1,
                "ano_movimentacao": 2017,
                "mes_movimentacao": 3,
                "orgao_codigo": 10,
                "orgao_nome": "GABINETE DO PREFEITO",
                "unidade_codigo": 10.01,
                "unidade_nome": "GABINETE DO PREFEITO - ADMINISTRAÇÃO DIRETA",
                "categoria_economica_codigo": 3,
                "categoria_economica_nome": "DESPESAS CORRENTES",
                "grupo_despesa_codigo": 1,
                "grupo_despesa_nome": "PESSOAL E ENCARGOS SOCIAIS",
                "modalidade_aplicacao_codigo": 90,
                "modalidade_aplicacao_nome": "APLICAÇÕES DIRETAS",
                "elemento_codigo": 11,
                "elemento_nome": "VENCIMENTOS E VANTAGENS FIXAS - PESSOAL CIVIL",
                "subelemento_codigo": 1,
                "subelemento_nome": "VENCIMENTOS E SALÁRIOS",
                "funcao_codigo": 4,
                "funcao_nome": "ADMINISTRAÇÃO",
                "subfuncao_codigo": 122,
                "subfuncao_nome": "ADMINISTRAÇÃO GERAL",
                "programa_codigo": 2160,
                "programa_nome": "GESTÃO DAS POLÍTICAS MUNICIPAIS",
                "acao_codigo": 2064,
                "acao_nome": "ASSESSORAMENTO GOVERNAMENTAL",
                "fonte_recurso_codigo": 100,
                "fonte_recurso_nome": "RECURSOS ORDINÁRIOS - NÃO VINCULADOS",
                "empenho_ano": 2017,
                "empenho_modalidade_nome": "SEM TIPO INFORMADO",
                "empenho_modalidade_codigo": 0,
                "empenho_numero": 43,
                "subempenho": 83,
                "indicador_subempenho": "x",
                "credor_codigo": 0,
                "credor_nome": "CREDOR NÃO INFORMADO",
                "modalidade_licitacao_codigo": 0,
                "modalidade_licitacao_nome": "NÃO INFORMADA",
                "valor_empenhado": "160613,59",
                "valor_liquidado": "160613,59",
                "valor_pago": "160613,59"
            },
            {
                "_id": 2,
                "ano_movimentacao": 2017,
                "mes_movimentacao": 4,
                "orgao_codigo": 10,
                "orgao_nome": "GABINETE DO PREFEITO",
                "unidade_codigo": 10.01,
                "unidade_nome": "GABINETE DO PREFEITO - ADMINISTRAÇÃO DIRETA",
                "categoria_economica_codigo": 3,
                "categoria_economica_nome": "DESPESAS CORRENTES",
                "grupo_despesa_codigo": 1,
                "grupo_despesa_nome": "PESSOAL E ENCARGOS SOCIAIS",
                "modalidade_aplicacao_codigo": 90,
                "modalidade_aplicacao_nome": "APLICAÇÕES DIRETAS",
                "elemento_codigo": 11,
                "elemento_nome": "VENCIMENTOS E VANTAGENS FIXAS - PESSOAL CIVIL",
                "subelemento_codigo": 1,
                "subelemento_nome": "VENCIMENTOS E SALÁRIOS",
                "funcao_codigo": 4,
                "funcao_nome": "ADMINISTRAÇÃO",
                "subfuncao_codigo": 122,
                "subfuncao_nome": "ADMINISTRAÇÃO GERAL",
                "programa_codigo": 2160,
                "programa_nome": "GESTÃO DAS POLÍTICAS MUNICIPAIS",
                "acao_codigo": 2064,
                "acao_nome": "ASSESSORAMENTO GOVERNAMENTAL",
                "fonte_recurso_codigo": 100,
                "fonte_recurso_nome": "RECURSOS ORDINÁRIOS - NÃO VINCULADOS",
                "empenho_ano": 2017,
                "empenho_modalidade_nome": "SEM TIPO INFORMADO",
                "empenho_modalidade_codigo": 0,
                "empenho_numero": 43,
                "subempenho": 84,
                "indicador_subempenho": "x",
                "credor_codigo": 0,
                "credor_nome": "CREDOR NÃO INFORMADO",
                "modalidade_licitacao_codigo": 0,
                "modalidade_licitacao_nome": "NÃO INFORMADA",
                "valor_empenhado": "159933,78",
                "valor_liquidado": "159933,78",
                "valor_pago": "159933,78"
            },
            {
                "_id": 3,
                "ano_movimentacao": 2017,
                "mes_movimentacao": 7,
                "orgao_codigo": 10,
                "orgao_nome": "GABINETE DO PREFEITO",
                "unidade_codigo": 10.01,
                "unidade_nome": "GABINETE DO PREFEITO - ADMINISTRAÇÃO DIRETA",
                "categoria_economica_codigo": 3,
                "categoria_economica_nome": "DESPESAS CORRENTES",
                "grupo_despesa_codigo": 1,
                "grupo_despesa_nome": "PESSOAL E ENCARGOS SOCIAIS",
                "modalidade_aplicacao_codigo": 90,
                "modalidade_aplicacao_nome": "APLICAÇÕES DIRETAS",
                "elemento_codigo": 11,
                "elemento_nome": "VENCIMENTOS E VANTAGENS FIXAS - PESSOAL CIVIL",
                "subelemento_codigo": 1,
                "subelemento_nome": "VENCIMENTOS E SALÁRIOS",
                "funcao_codigo": 4,
                "funcao_nome": "ADMINISTRAÇÃO",
                "subfuncao_codigo": 122,
                "subfuncao_nome": "ADMINISTRAÇÃO GERAL",
                "programa_codigo": 2160,
                "programa_nome": "GESTÃO DAS POLÍTICAS MUNICIPAIS",
                "acao_codigo": 2064,
                "acao_nome": "ASSESSORAMENTO GOVERNAMENTAL",
                "fonte_recurso_codigo": 100,
                "fonte_recurso_nome": "RECURSOS ORDINÁRIOS - NÃO VINCULADOS",
                "empenho_ano": 2017,
                "empenho_modalidade_nome": "SEM TIPO INFORMADO",
                "empenho_modalidade_codigo": 0,
                "empenho_numero": 43,
                "subempenho": 87,
                "indicador_subempenho": "x",
                "credor_codigo": 0,
                "credor_nome": "CREDOR NÃO INFORMADO",
                "modalidade_licitacao_codigo": 0,
                "modalidade_licitacao_nome": "NÃO INFORMADA",
                "valor_empenhado": "77521,68",
                "valor_liquidado": "77521,68",
                "valor_pago": "77521,68"
            },
            {
                "_id": 4,
                "ano_movimentacao": 2017,
                "mes_movimentacao": 11,
                "orgao_codigo": 10,
                "orgao_nome": "GABINETE DO PREFEITO",
                "unidade_codigo": 10.01,
                "unidade_nome": "GABINETE DO PREFEITO - ADMINISTRAÇÃO DIRETA",
                "categoria_economica_codigo": 3,
                "categoria_economica_nome": "DESPESAS CORRENTES",
                "grupo_despesa_codigo": 1,
                "grupo_despesa_nome": "PESSOAL E ENCARGOS SOCIAIS",
                "modalidade_aplicacao_codigo": 90,
                "modalidade_aplicacao_nome": "APLICAÇÕES DIRETAS",
                "elemento_codigo": 11,
                "elemento_nome": "VENCIMENTOS E VANTAGENS FIXAS - PESSOAL CIVIL",
                "subelemento_codigo": 1,
                "subelemento_nome": "VENCIMENTOS E SALÁRIOS",
                "funcao_codigo": 4,
                "funcao_nome": "ADMINISTRAÇÃO",
                "subfuncao_codigo": 122,
                "subfuncao_nome": "ADMINISTRAÇÃO GERAL",
                "programa_codigo": 2160,
                "programa_nome": "GESTÃO DAS POLÍTICAS MUNICIPAIS",
                "acao_codigo": 2064,
                "acao_nome": "ASSESSORAMENTO GOVERNAMENTAL",
                "fonte_recurso_codigo": 100,
                "fonte_recurso_nome": "RECURSOS ORDINÁRIOS - NÃO VINCULADOS",
                "empenho_ano": 2017,
                "empenho_modalidade_nome": "SEM TIPO INFORMADO",
                "empenho_modalidade_codigo": 0,
                "empenho_numero": 43,
                "subempenho": 91,
                "indicador_subempenho": "x",
                "credor_codigo": 0,
                "credor_nome": "CREDOR NÃO INFORMADO",
                "modalidade_licitacao_codigo": 0,
                "modalidade_licitacao_nome": "NÃO INFORMADA",
                "valor_empenhado": "86559,28",
                "valor_liquidado": "86559,28",
                "valor_pago": "86559,28"
            },
            {
                "_id": 5,
                "ano_movimentacao": 2017,
                "mes_movimentacao": 6,
                "orgao_codigo": 10,
                "orgao_nome": "GABINETE DO PREFEITO",
                "unidade_codigo": 10.01,
                "unidade_nome": "GABINETE DO PREFEITO - ADMINISTRAÇÃO DIRETA",
                "categoria_economica_codigo": 3,
                "categoria_economica_nome": "DESPESAS CORRENTES",
                "grupo_despesa_codigo": 1,
                "grupo_despesa_nome": "PESSOAL E ENCARGOS SOCIAIS",
                "modalidade_aplicacao_codigo": 90,
                "modalidade_aplicacao_nome": "APLICAÇÕES DIRETAS",
                "elemento_codigo": 11,
                "elemento_nome": "VENCIMENTOS E VANTAGENS FIXAS - PESSOAL CIVIL",
                "subelemento_codigo": 5,
                "subelemento_nome": "INCORPORAÇÕES",
                "funcao_codigo": 4,
                "funcao_nome": "ADMINISTRAÇÃO",
                "subfuncao_codigo": 122,
                "subfuncao_nome": "ADMINISTRAÇÃO GERAL",
                "programa_codigo": 2160,
                "programa_nome": "GESTÃO DAS POLÍTICAS MUNICIPAIS",
                "acao_codigo": 2064,
                "acao_nome": "ASSESSORAMENTO GOVERNAMENTAL",
                "fonte_recurso_codigo": 100,
                "fonte_recurso_nome": "RECURSOS ORDINÁRIOS - NÃO VINCULADOS",
                "empenho_ano": 2017,
                "empenho_modalidade_nome": "SEM TIPO INFORMADO",
                "empenho_modalidade_codigo": 0,
                "empenho_numero": 44,
                "subempenho": 86,
                "indicador_subempenho": "x",
                "credor_codigo": 0,
                "credor_nome": "CREDOR NÃO INFORMADO",
                "modalidade_licitacao_codigo": 0,
                "modalidade_licitacao_nome": "NÃO INFORMADA",
                "valor_empenhado": "2855,30",
                "valor_liquidado": "2855,30",
                "valor_pago": "2855,30"
            },
            {
                "_id": 6,
                "ano_movimentacao": 2017,
                "mes_movimentacao": 6,
                "orgao_codigo": 10,
                "orgao_nome": "GABINETE DO PREFEITO",
                "unidade_codigo": 10.01,
                "unidade_nome": "GABINETE DO PREFEITO - ADMINISTRAÇÃO DIRETA",
                "categoria_economica_codigo": 3,
                "categoria_economica_nome": "DESPESAS CORRENTES",
                "grupo_despesa_codigo": 1,
                "grupo_despesa_nome": "PESSOAL E ENCARGOS SOCIAIS",
                "modalidade_aplicacao_codigo": 90,
                "modalidade_aplicacao_nome": "APLICAÇÕES DIRETAS",
                "elemento_codigo": 11,
                "elemento_nome": "VENCIMENTOS E VANTAGENS FIXAS - PESSOAL CIVIL",
                "subelemento_codigo": 9,
                "subelemento_nome": "ADICIONAL DE PERICULOSIDADE, INSALUBRIDADE E ATIVIDADES PENOSAS",
                "funcao_codigo": 4,
                "funcao_nome": "ADMINISTRAÇÃO",
                "subfuncao_codigo": 122,
                "subfuncao_nome": "ADMINISTRAÇÃO GERAL",
                "programa_codigo": 2160,
                "programa_nome": "GESTÃO DAS POLÍTICAS MUNICIPAIS",
                "acao_codigo": 2064,
                "acao_nome": "ASSESSORAMENTO GOVERNAMENTAL",
                "fonte_recurso_codigo": 100,
                "fonte_recurso_nome": "RECURSOS ORDINÁRIOS - NÃO VINCULADOS",
                "empenho_ano": 2017,
                "empenho_modalidade_nome": "SEM TIPO INFORMADO",
                "empenho_modalidade_codigo": 0,
                "empenho_numero": 45,
                "subempenho": 86,
                "indicador_subempenho": "x",
                "credor_codigo": 0,
                "credor_nome": "CREDOR NÃO INFORMADO",
                "modalidade_licitacao_codigo": 0,
                "modalidade_licitacao_nome": "NÃO INFORMADA",
                "valor_empenhado": "7771,80",
                "valor_liquidado": "7771,80",
                "valor_pago": "7771,80"
            },
            {
                "_id": 7,
                "ano_movimentacao": 2017,
                "mes_movimentacao": 10,
                "orgao_codigo": 10,
                "orgao_nome": "GABINETE DO PREFEITO",
                "unidade_codigo": 10.01,
                "unidade_nome": "GABINETE DO PREFEITO - ADMINISTRAÇÃO DIRETA",
                "categoria_economica_codigo": 3,
                "categoria_economica_nome": "DESPESAS CORRENTES",
                "grupo_despesa_codigo": 1,
                "grupo_despesa_nome": "PESSOAL E ENCARGOS SOCIAIS",
                "modalidade_aplicacao_codigo": 90,
                "modalidade_aplicacao_nome": "APLICAÇÕES DIRETAS",
                "elemento_codigo": 11,
                "elemento_nome": "VENCIMENTOS E VANTAGENS FIXAS - PESSOAL CIVIL",
                "subelemento_codigo": 9,
                "subelemento_nome": "ADICIONAL DE PERICULOSIDADE, INSALUBRIDADE E ATIVIDADES PENOSAS",
                "funcao_codigo": 4,
                "funcao_nome": "ADMINISTRAÇÃO",
                "subfuncao_codigo": 122,
                "subfuncao_nome": "ADMINISTRAÇÃO GERAL",
                "programa_codigo": 2160,
                "programa_nome": "GESTÃO DAS POLÍTICAS MUNICIPAIS",
                "acao_codigo": 2064,
                "acao_nome": "ASSESSORAMENTO GOVERNAMENTAL",
                "fonte_recurso_codigo": 100,
                "fonte_recurso_nome": "RECURSOS ORDINÁRIOS - NÃO VINCULADOS",
                "empenho_ano": 2017,
                "empenho_modalidade_nome": "SEM TIPO INFORMADO",
                "empenho_modalidade_codigo": 0,
                "empenho_numero": 45,
                "subempenho": 90,
                "indicador_subempenho": "x",
                "credor_codigo": 0,
                "credor_nome": "CREDOR NÃO INFORMADO",
                "modalidade_licitacao_codigo": 0,
                "modalidade_licitacao_nome": "NÃO INFORMADA",
                "valor_empenhado": "12802,82",
                "valor_liquidado": "12802,82",
                "valor_pago": "12802,82"
            },
            {
                "_id": 8,
                "ano_movimentacao": 2017,
                "mes_movimentacao": 2,
                "orgao_codigo": 10,
                "orgao_nome": "GABINETE DO PREFEITO",
                "unidade_codigo": 10.01,
                "unidade_nome": "GABINETE DO PREFEITO - ADMINISTRAÇÃO DIRETA",
                "categoria_economica_codigo": 3,
                "categoria_economica_nome": "DESPESAS CORRENTES",
                "grupo_despesa_codigo": 1,
                "grupo_despesa_nome": "PESSOAL E ENCARGOS SOCIAIS",
                "modalidade_aplicacao_codigo": 90,
                "modalidade_aplicacao_nome": "APLICAÇÕES DIRETAS",
                "elemento_codigo": 11,
                "elemento_nome": "VENCIMENTOS E VANTAGENS FIXAS - PESSOAL CIVIL",
                "subelemento_codigo": 31,
                "subelemento_nome": "GRATIFICAÇÃO POR EXERCÍCIO DE CARGOS TÉCNICOS",
                "funcao_codigo": 4,
                "funcao_nome": "ADMINISTRAÇÃO",
                "subfuncao_codigo": 122,
                "subfuncao_nome": "ADMINISTRAÇÃO GERAL",
                "programa_codigo": 2160,
                "programa_nome": "GESTÃO DAS POLÍTICAS MUNICIPAIS",
                "acao_codigo": 2064,
                "acao_nome": "ASSESSORAMENTO GOVERNAMENTAL",
                "fonte_recurso_codigo": 100,
                "fonte_recurso_nome": "RECURSOS ORDINÁRIOS - NÃO VINCULADOS",
                "empenho_ano": 2017,
                "empenho_modalidade_nome": "SEM TIPO INFORMADO",
                "empenho_modalidade_codigo": 0,
                "empenho_numero": 46,
                "subempenho": 82,
                "indicador_subempenho": "x",
                "credor_codigo": 0,
                "credor_nome": "CREDOR NÃO INFORMADO",
                "modalidade_licitacao_codigo": 0,
                "modalidade_licitacao_nome": "NÃO INFORMADA",
                "valor_empenhado": "101912,17",
                "valor_liquidado": "101912,17",
                "valor_pago": "101912,17"
            },
            {
                "_id": 9,
                "ano_movimentacao": 2017,
                "mes_movimentacao": 3,
                "orgao_codigo": 10,
                "orgao_nome": "GABINETE DO PREFEITO",
                "unidade_codigo": 10.01,
                "unidade_nome": "GABINETE DO PREFEITO - ADMINISTRAÇÃO DIRETA",
                "categoria_economica_codigo": 3,
                "categoria_economica_nome": "DESPESAS CORRENTES",
                "grupo_despesa_codigo": 1,
                "grupo_despesa_nome": "PESSOAL E ENCARGOS SOCIAIS",
                "modalidade_aplicacao_codigo": 90,
                "modalidade_aplicacao_nome": "APLICAÇÕES DIRETAS",
                "elemento_codigo": 11,
                "elemento_nome": "VENCIMENTOS E VANTAGENS FIXAS - PESSOAL CIVIL",
                "subelemento_codigo": 31,
                "subelemento_nome": "GRATIFICAÇÃO POR EXERCÍCIO DE CARGOS TÉCNICOS",
                "funcao_codigo": 4,
                "funcao_nome": "ADMINISTRAÇÃO",
                "subfuncao_codigo": 122,
                "subfuncao_nome": "ADMINISTRAÇÃO GERAL",
                "programa_codigo": 2160,
                "programa_nome": "GESTÃO DAS POLÍTICAS MUNICIPAIS",
                "acao_codigo": 2064,
                "acao_nome": "ASSESSORAMENTO GOVERNAMENTAL",
                "fonte_recurso_codigo": 100,
                "fonte_recurso_nome": "RECURSOS ORDINÁRIOS - NÃO VINCULADOS",
                "empenho_ano": 2017,
                "empenho_modalidade_nome": "SEM TIPO INFORMADO",
                "empenho_modalidade_codigo": 0,
                "empenho_numero": 46,
                "subempenho": 83,
                "indicador_subempenho": "x",
                "credor_codigo": 0,
                "credor_nome": "CREDOR NÃO INFORMADO",
                "modalidade_licitacao_codigo": 0,
                "modalidade_licitacao_nome": "NÃO INFORMADA",
                "valor_empenhado": "120194,03",
                "valor_liquidado": "120194,03",
                "valor_pago": "120194,03"
            },
            {
                "_id": 10,
                "ano_movimentacao": 2017,
                "mes_movimentacao": 10,
                "orgao_codigo": 10,
                "orgao_nome": "GABINETE DO PREFEITO",
                "unidade_codigo": 10.01,
                "unidade_nome": "GABINETE DO PREFEITO - ADMINISTRAÇÃO DIRETA",
                "categoria_economica_codigo": 3,
                "categoria_economica_nome": "DESPESAS CORRENTES",
                "grupo_despesa_codigo": 1,
                "grupo_despesa_nome": "PESSOAL E ENCARGOS SOCIAIS",
                "modalidade_aplicacao_codigo": 90,
                "modalidade_aplicacao_nome": "APLICAÇÕES DIRETAS",
                "elemento_codigo": 11,
                "elemento_nome": "VENCIMENTOS E VANTAGENS FIXAS - PESSOAL CIVIL",
                "subelemento_codigo": 31,
                "subelemento_nome": "GRATIFICAÇÃO POR EXERCÍCIO DE CARGOS TÉCNICOS",
                "funcao_codigo": 4,
                "funcao_nome": "ADMINISTRAÇÃO",
                "subfuncao_codigo": 122,
                "subfuncao_nome": "ADMINISTRAÇÃO GERAL",
                "programa_codigo": 2160,
                "programa_nome": "GESTÃO DAS POLÍTICAS MUNICIPAIS",
                "acao_codigo": 2064,
                "acao_nome": "ASSESSORAMENTO GOVERNAMENTAL",
                "fonte_recurso_codigo": 100,
                "fonte_recurso_nome": "RECURSOS ORDINÁRIOS - NÃO VINCULADOS",
                "empenho_ano": 2017,
                "empenho_modalidade_nome": "SEM TIPO INFORMADO",
                "empenho_modalidade_codigo": 0,
                "empenho_numero": 46,
                "subempenho": 90,
                "indicador_subempenho": "x",
                "credor_codigo": 0,
                "credor_nome": "CREDOR NÃO INFORMADO",
                "modalidade_licitacao_codigo": 0,
                "modalidade_licitacao_nome": "NÃO INFORMADA",
                "valor_empenhado": "96336,32",
                "valor_liquidado": "96336,32",
                "valor_pago": "96336,32"
            }
        ],
        "limit": 10,
        "_links": {
            "start": "/api/3/action/datastore_search?limit=10&resource_id=d4d8a7f0-d4be-4397-b950-f0c991438111",
            "next": "/api/3/action/datastore_search?offset=10&limit=10&resource_id=d4d8a7f0-d4be-4397-b950-f0c991438111"
        },
        "total": 94178
    }
}